^C:\USERS\JOSHVAL\DESKTOP\URL\PROGRAAVPRACTICA\PROGRAAVANZADA2019\TAREA1_JOSHUA_VALEY_1014416\DEBUG\.NETFRAMEWORK,VERSION=V4.5.2.ASSEMBLYATTRIBUTES.OBJ|C:\USERS\JOSHVAL\DESKTOP\URL\PROGRAAVPRACTICA\PROGRAAVANZADA2019\TAREA1_JOSHUA_VALEY_1014416\DEBUG\APP.RES|C:\USERS\JOSHVAL\DESKTOP\URL\PROGRAAVPRACTICA\PROGRAAVANZADA2019\TAREA1_JOSHUA_VALEY_1014416\DEBUG\ASSEMBLYINFO.OBJ|C:\USERS\JOSHVAL\DESKTOP\URL\PROGRAAVPRACTICA\PROGRAAVANZADA2019\TAREA1_JOSHUA_VALEY_1014416\DEBUG\PCH.OBJ|C:\USERS\JOSHVAL\DESKTOP\URL\PROGRAAVPRACTICA\PROGRAAVANZADA2019\TAREA1_JOSHUA_VALEY_1014416\DEBUG\TAREA1_JOSHUA_VALEY_1014416.OBJ
C:\USERS\JOSHVAL\DESKTOP\URL\PROGRAAVPRACTICA\PROGRAAVANZADA2019\TAREA1_JOSHUA_VALEY_1014416\DEBUG\TAREA1_JOSHUA_VALEY_1014416.EXE
C:\USERS\JOSHVAL\DESKTOP\URL\PROGRAAVPRACTICA\PROGRAAVANZADA2019\TAREA1_JOSHUA_VALEY_1014416\DEBUG\TAREA1_JOSHUA_VALEY_1014416.PDB
